<?xml version="1.0" encoding="UTF-8" standalone="no"?>
<!-- Created with Inkscape (http://www.inkscape.org/) -->

<svg
   width="255.50824mm"
   height="107.22512mm"
   viewBox="0 0 255.50824 107.22512"
   version="1.1"
   id="svg1"
   xml:space="preserve"
   inkscape:version="1.4-dev (1:1.4.0-dev+202403210151+2fe0648968)"
   sodipodi:docname="loci.svg"
   inkscape:export-filename="loci_full_white.png"
   inkscape:export-xdpi="96"
   inkscape:export-ydpi="96"
   xmlns:inkscape="http://www.inkscape.org/namespaces/inkscape"
   xmlns:sodipodi="http://sodipodi.sourceforge.net/DTD/sodipodi-0.dtd"
   xmlns="http://www.w3.org/2000/svg"
   xmlns:svg="http://www.w3.org/2000/svg"><sodipodi:namedview
     id="namedview1"
     pagecolor="#ffffff"
     bordercolor="#000000"
     borderopacity="0.25"
     inkscape:showpageshadow="2"
     inkscape:pageopacity="0.0"
     inkscape:pagecheckerboard="0"
     inkscape:deskcolor="#d1d1d1"
     inkscape:document-units="mm"
     inkscape:zoom="1"
     inkscape:cx="466"
     inkscape:cy="178"
     inkscape:window-width="1920"
     inkscape:window-height="1055"
     inkscape:window-x="0"
     inkscape:window-y="25"
     inkscape:window-maximized="1"
     inkscape:current-layer="layer4"
     inkscape:export-bgcolor="#ffffff00" /><defs
     id="defs1"><linearGradient
       id="swatch2"
       inkscape:swatch="solid"><stop
         style="stop-color:#fafafa;stop-opacity:1;"
         offset="0"
         id="stop2" /></linearGradient></defs><g
     inkscape:groupmode="layer"
     id="layer4"
     inkscape:label="Raven"
     style="display:inline"
     transform="translate(-109.43826,-64.779275)"><path
       id="rect5"
       style="display:inline;opacity:1;fill:#355f7f;fill-opacity:1;stroke:none;stroke-width:4.5992;stroke-dasharray:none;stroke-opacity:1"
       inkscape:label="raven_and_handle"
       d="m 190.23955,64.799146 c -0.75079,-0.0268 -1.54674,-0.02865 -2.32854,0.0078 -1.56357,0.0724 -3.07006,0.294505 -4.70617,0.691945 -1.63611,0.397445 -3.40187,0.970341 -5.05189,1.735813 -1.65003,0.765476 -3.18415,1.723274 -4.66793,2.759004 -1.48378,1.035731 -2.91696,2.149563 -4.18476,3.053558 -1.2678,0.904003 -2.37004,1.598526 -3.38429,2.149743 -1.01424,0.551223 -1.94045,0.958767 -2.40347,1.162716 -0.46302,0.203957 -0.46288,0.204482 -0.71469,0.311093 -0.25181,0.106602 -0.75546,0.319733 -1.26452,0.562758 -0.50906,0.243022 -1.02339,0.515747 -1.53789,0.788581 -1.04458,0.0312 -2.08937,0.06291 -2.94297,0.0863 -0.8536,0.0234 -1.51604,0.03889 -2.22932,0.151926 -0.71328,0.113042 -1.4774,0.323395 -2.49081,0.662491 -1.0134,0.339098 -2.27613,0.807014 -3.78064,1.664502 -1.50452,0.857487 -3.25051,2.104779 -4.84467,3.433892 -1.59445,1.328766 -3.03669,2.739692 -4.24108,4.057121 -1.2044,1.317418 -2.17062,2.541388 -2.95796,3.605467 -0.78734,1.064079 -1.39579,1.968481 -2.12855,3.137791 -0.73278,1.169316 -1.59028,2.603702 -2.33475,3.936709 -0.74446,1.333014 -1.37573,2.564654 -2.13578,4.174424 -0.76006,1.60974 -1.64865,3.59721 -2.44378,5.33559 -0.79514,1.73838 -1.49687,3.22729 -2.31149,4.81366 -0.81462,1.58636 -1.74183,3.27019 -2.59933,4.8059 -0.85749,1.5357 -1.64496,2.92325 -2.40501,4.26796 -0.76006,1.34472 -1.49287,2.6465 -2.2841,4.13153 -0.79124,1.48503 -1.64096,3.15346 -2.47117,4.77491 -0.83021,1.62143 -1.6411,3.19609 -2.35438,4.63434 -0.71328,1.43826 -1.32875,2.73979 -1.94458,4.04161 1.62142,-1.41875 3.24282,-2.8371 4.68498,-4.06487 1.44218,-1.22775 2.70499,-2.26453 3.60907,-2.99364 0.90426,-0.72887 1.44997,-1.1497 1.8748,-1.48881 0.42484,-0.33912 0.72864,-0.59665 1.0015,-0.72914 0.27287,-0.1325 0.5149,-0.13999 0.75655,-0.1478 -0.23386,0.38198 -0.46812,0.76363 -0.89297,1.43403 -0.42484,0.67041 -1.04027,1.62931 -1.58595,2.46342 -0.54568,0.8341 -1.02157,1.54333 -1.94562,3.09334 -0.92405,1.55 -2.29629,3.94062 -3.53932,6.18877 -1.24302,2.24816 -2.35643,4.35408 -3.13365,5.82032 -0.77723,1.46626 -1.21853,2.29271 -1.53273,2.89905 -0.31419,0.60634 -0.50143,0.99236 -0.63923,1.3286 -0.13781,0.33625 -0.226,0.62288 -0.3142,0.90951 0.13229,-0.011 0.26441,-0.0224 0.42427,-0.061 0.15986,-0.0386 0.34726,-0.10508 0.76068,-0.39171 0.41343,-0.2866 1.05317,-0.79338 1.84691,-1.41077 0.79376,-0.61735 1.74183,-1.34513 2.97654,-2.40349 1.23471,-1.05837 2.7559,-2.44738 4.22765,-3.83646 1.47175,-1.38906 2.89387,-2.77828 3.93568,-3.79253 1.0418,-1.01425 1.70324,-1.65365 2.16627,-2.03399 0.46286,-0.38055 0.72763,-0.50142 0.99219,-0.6227 -0.99218,2.62377 -1.98454,5.24755 -2.88302,7.72253 -0.8985,2.47497 -1.70326,4.80106 -2.53008,7.19336 -0.82683,2.3923 -1.67569,4.85083 -2.11667,6.76909 -0.44098,1.91824 -0.47388,3.29591 -0.47387,4.38733 0,1.0914 0.0332,1.89618 0.20412,2.72852 0.17087,0.83233 0.47921,1.69241 0.74931,2.20503 0.2701,0.51264 0.50194,0.67799 0.77204,0.74414 0.2701,0.0661 0.5786,0.0329 0.90382,-0.0553 0.32522,-0.0882 0.66697,-0.23152 1.10794,-0.4961 0.441,-0.26456 0.98099,-0.65008 1.46607,-1.04696 0.48522,-0.3967 0.91536,-0.80476 1.25157,-1.14105 0.33628,-0.33621 0.57859,-0.60102 0.82114,-0.86558 0.12127,0.47404 0.24254,0.94809 0.42995,1.43867 0.18741,0.49059 0.44114,0.99752 0.70022,1.38338 0.25907,0.38586 0.52348,0.65078 0.72191,0.82166 0.19845,0.17088 0.33055,0.24769 0.50695,0.28629 0.1764,0.0386 0.39705,0.0394 0.601,0.0119 0.20394,-0.0276 0.39136,-0.0834 0.61184,-0.1881 0.22049,-0.10473 0.47387,-0.25924 0.87075,-0.58446 0.3969,-0.3252 0.93723,-0.82062 1.41129,-1.36632 0.47404,-0.54572 0.88194,-1.14085 1.24023,-1.81333 0.3583,-0.67249 0.6668,-1.42299 1.08572,-2.60811 0.41892,-1.18512 0.94826,-2.805 1.62626,-4.95473 0.678,-2.14976 1.50481,-4.82863 2.39779,-7.68946 0.89297,-2.86083 1.85225,-5.90383 2.51923,-7.89926 0.66697,-1.99541 1.04144,-2.94331 1.42729,-3.68195 0.38586,-0.73863 0.78307,-1.26762 1.21854,-1.78025 0.43546,-0.51263 0.90933,-1.0094 1.87946,-1.82521 0.97037,-0.81554 2.43638,-1.95077 3.65456,-2.82722 0.10797,-0.0776 0.18841,-0.1269 0.29248,-0.20052 0.0571,0.11163 0.11393,0.22314 0.185,0.3328 0.38585,0.59532 0.98081,1.16857 1.57613,1.5875 0.59532,0.41892 1.19094,0.68386 1.6583,1.01338 0.46736,0.3295 0.80654,0.72347 1.19941,1.16323 0.39287,0.43976 0.83924,0.92481 1.80506,1.95131 0.96582,1.02649 2.4508,2.59432 3.51761,3.90879 1.06682,1.31448 1.71547,2.37573 2.25568,3.32383 0.5402,0.94811 0.97235,1.78331 1.16633,2.46549 0.194,0.68217 0.14987,1.21113 0.0176,1.65209 -0.13228,0.44098 -0.35277,0.79409 -0.66145,0.97049 -0.30869,0.17638 -0.7059,0.17604 -1.16892,0.22014 -0.46303,0.0441 -0.99218,0.13229 -1.65365,0.33073 -0.66146,0.19843 -1.45486,0.50728 -1.973,0.88212 -0.51814,0.37484 -0.76103,0.81562 -0.87127,1.33376 -0.11024,0.51816 -0.0882,1.11363 -0.0661,1.70894 0.0882,-0.22048 0.17674,-0.44114 0.37517,-0.71675 0.19843,-0.27563 0.50694,-0.60616 0.9369,-0.87074 0.42997,-0.26458 0.981,-0.46302 1.6645,-0.59531 0.68351,-0.13229 1.49947,-0.19845 2.53577,-0.3638 1.03629,-0.16537 2.29288,-0.42996 3.54965,-0.69453 1.03383,0.26056 2.06756,0.52136 3.37447,0.80253 1.30691,0.28117 2.88699,0.58275 3.79357,1.05524 0.90657,0.47249 1.13962,1.11573 1.30999,1.42988 0.17038,0.31415 0.27808,0.299 0.39947,0.0243 0.12138,-0.27471 0.25648,-0.80907 0.0801,-1.21698 -0.17639,-0.40791 -0.66448,-0.68911 -1.1069,-0.93999 -0.44244,-0.25089 -0.83923,-0.47147 -1.23611,-0.69196 0.83785,0.0221 1.67561,0.0438 2.61948,-0.0641 0.94387,-0.1079 1.99374,-0.34579 2.68718,-0.2253 0.69343,0.12047 1.03057,0.59965 1.3162,1.03095 0.28562,0.4313 0.51967,0.81516 0.75396,1.19889 0.0766,-0.13962 0.15323,-0.27935 0.13642,-0.49248 -0.0168,-0.21313 -0.12659,-0.49999 -0.21601,-0.79375 -0.0894,-0.29376 -0.15826,-0.59467 -0.22686,-0.89555 0.0245,0.0583 0.0488,0.11663 0.23151,0.30282 0.18274,0.18619 0.52416,0.50021 0.76068,0.84698 0.23652,0.34676 0.36817,0.72639 0.50023,1.10588 0.0387,-0.43253 0.0778,-0.86517 0.0594,-1.23611 -0.0184,-0.37093 -0.0942,-0.68 -0.19792,-0.96996 -0.10368,-0.28997 -0.235,-0.56073 -0.39223,-0.74001 -0.15723,-0.17928 -0.34008,-0.26712 -0.60255,-0.42737 -0.26247,-0.16025 -0.60492,-0.39275 -0.94723,-0.62528 -0.19576,-0.29443 -0.39152,-0.58892 -0.70021,-0.8015 -0.30869,-0.21258 -0.73027,-0.34315 -1.15187,-0.47387 -0.3256,0.19331 -0.65112,0.38668 -1.048,0.51108 -0.39688,0.12438 -0.86473,0.17967 -1.38544,0.26251 -0.52071,0.0829 -1.09416,0.19328 -1.81075,0.19327 -0.71658,0 -1.57646,-0.11058 -2.28203,-0.27595 -0.70556,-0.16536 -1.25693,-0.3855 -1.90737,-0.74931 -0.65044,-0.3638 -1.39991,-0.87126 -2.0283,-1.4335 -0.6284,-0.56226 -1.1356,-1.17927 -2.18591,-2.71043 -1.05031,-1.53116 -2.64352,-3.97636 -3.92225,-5.78828 -1.27873,-1.81192 -2.24299,-2.99061 -2.87217,-3.80442 -0.62918,-0.8138 -0.9234,-1.26238 -1.05368,-1.66449 -0.13029,-0.40212 -0.0964,-0.75748 0.0284,-1.41284 0.0876,-0.45979 0.2217,-1.06056 0.3855,-1.53479 0.42755,0.49054 0.97625,0.96892 1.62988,1.30741 0.87308,0.45214 1.93317,0.6549 3.13366,0.81081 1.20049,0.15591 2.54092,0.26504 3.73362,0.36639 1.1927,0.10135 2.23759,0.19485 3.33675,0.2806 1.09915,0.0858 2.25273,0.16337 3.04787,0.24133 0.68748,0.0674 1.0802,0.1376 1.3777,0.22014 l -4.65088,3.9026 c -0.25804,0.21652 -0.29197,0.59824 -0.0755,0.85628 l 0.40824,0.48627 -1.46296,1.22732 c -0.26986,0.22644 -0.30498,0.62621 -0.0785,0.89607 l 2.56469,3.05666 c 0.22645,0.26986 0.62622,0.30499 0.89608,0.0786 l 1.46296,-1.22783 0.43408,0.51728 c 0.21652,0.25804 0.59823,0.29145 0.85627,0.0749 l 5.75624,-4.8302 c 0.0946,0.0841 0.22923,0.1669 0.30386,0.25219 0.43655,0.49892 0.50039,1.02582 0.52452,1.39836 0.0241,0.37253 0.009,0.59076 -0.03,0.76533 -0.0385,0.17457 -0.0998,0.30528 -0.16124,0.43615 0.2951,-0.34578 0.59033,-0.69172 0.7736,-1.17822 0.18327,-0.4865 0.25476,-1.11349 0.26665,-1.58389 0.0119,-0.4704 -0.0358,-0.78376 -0.0853,-1.05937 -0.0226,-0.12579 -0.0462,-0.20205 -0.0692,-0.3085 l 0.65267,-0.54726 c 0.17603,0.19999 0.34313,0.37147 0.52917,0.60358 0.33875,-0.34756 0.67767,-0.69552 0.87592,-1.08675 0.18233,-0.35986 0.24584,-0.73981 0.32762,-0.971 l 0.34675,-0.29094 c 0.009,-9e-5 0.0184,-0.004 0.0274,-0.004 0.26503,0.1715 0.53005,0.34328 0.74052,0.59273 0.21047,0.24946 0.36641,0.5769 0.45218,1.18494 0.0857,0.60805 0.1017,1.49671 0.1173,2.38539 0.28134,-0.46781 0.56221,-0.93555 0.79737,-1.36478 0.23515,-0.42922 0.42432,-0.81989 0.55914,-1.22887 0.13479,-0.40899 0.21562,-0.83628 0.21703,-1.34617 0.001,-0.50989 -0.0764,-1.10262 -0.16484,-1.59008 -0.0482,-0.26578 -0.1072,-0.51003 -0.18862,-0.77515 l 6.31331,-5.29735 c 0.25804,-0.21652 0.29197,-0.59875 0.0754,-0.8568 l -0.37878,-0.45113 4.85086,-4.07107 -3.38222,-4.03076 -4.85138,4.07055 -0.46302,-0.55139 c -0.21652,-0.25804 -0.59824,-0.29145 -0.85628,-0.0749 l -6.14175,5.15369 c -0.0932,-0.0227 -0.18382,-0.0494 -0.28421,-0.0661 -0.32742,-0.0546 -0.71693,-0.10143 -1.05214,-0.078 -0.3352,0.0234 -0.61621,0.11672 -0.94361,0.40514 -0.3274,0.28843 -0.70152,0.77207 -1.29397,1.41129 -0.59245,0.63922 -1.40324,1.43431 -2.09705,1.83965 -0.6938,0.40537 -1.27067,0.42077 -2.19832,0.3974 -0.92765,-0.0234 -2.20604,-0.0858 -3.12591,-0.17932 -0.91987,-0.0935 -1.48098,-0.21793 -2.04225,-0.4284 -0.56127,-0.21048 -1.12253,-0.50696 -1.55908,-0.7798 -0.43655,-0.27284 -0.74816,-0.52232 -0.95084,-0.81855 -0.20268,-0.29622 -0.29641,-0.63924 -0.33539,-1.09916 -0.039,-0.45993 -0.0234,-1.03661 0.0935,-1.59009 0.11694,-0.55347 0.33514,-1.08354 0.5612,-1.65261 0.22607,-0.56906 0.46006,-1.17693 0.80305,-2.32286 0.10321,-0.34478 0.22,-0.76896 0.33384,-1.17356 0.26229,-0.19229 0.55046,-0.39049 0.80303,-0.57984 3.72074,-2.78916 6.27866,-5.19244 7.9654,-6.86263 1.68674,-1.67021 2.50217,-2.60742 3.47783,-3.80907 0.97566,-1.20165 2.11148,-2.6677 3.10368,-4.22765 0.99221,-1.55994 1.84106,-3.21425 2.54662,-4.63641 0.70557,-1.42213 1.26745,-2.61207 1.72496,-3.714492 0.45752,-1.10244 0.81046,-2.11683 1.17977,-3.06493 0.36932,-0.948098 0.75499,-1.830202 1.25109,-2.783811 0.4961,-0.953597 1.1026,-1.979372 1.75855,-2.877856 0.65595,-0.898481 1.36166,-1.669499 2.08928,-2.408126 0.72763,-0.738614 1.47709,-1.444015 2.55746,-2.325957 1.08036,-0.881986 2.4913,-1.940275 3.7481,-2.695442 1.25676,-0.755182 2.35937,-1.207341 3.4618,-1.659332 1.36701,-0.0551 2.73383,-0.110068 4.7072,-0.126605 1.97335,-0.0165 4.55301,0.006 7.24297,0.08268 2.68994,0.0772 5.49027,0.209456 7.64553,0.347265 2.15528,0.137802 3.66539,0.280767 4.62452,0.368966 0.95914,0.08821 1.36719,0.12145 1.77509,0.154515 -0.19843,-0.319696 -0.39704,-0.639409 -0.61753,-0.975647 -0.22049,-0.336248 -0.46302,-0.689025 -0.92604,-1.256772 -0.46302,-0.567768 -1.14651,-1.350647 -1.90169,-2.056206 -0.75516,-0.705562 -1.582,-1.333938 -2.53008,-1.934767 -0.9481,-0.60083 -2.01744,-1.17409 -3.20808,-1.703256 -1.19063,-0.52917 -2.50218,-1.014075 -4.48654,-1.548739 -1.98439,-0.534681 -4.64121,-1.119139 -6.76342,-1.54358 -2.12218,-0.424436 -3.70985,-0.68884 -5.29735,-0.953429 -0.66145,-0.694524 -1.32308,-1.389226 -2.02313,-2.006599 -0.70005,-0.617365 -1.43832,-1.15738 -2.36988,-1.64796 -0.93156,-0.490591 -2.05602,-0.931731 -3.00963,-1.245914 -0.95361,-0.314206 -1.73667,-0.501255 -2.93833,-0.633556 -0.60083,-0.0661 -1.30645,-0.118424 -2.05724,-0.145214 z m 3.29127,3.821471 a 4.396584,4.396584 0 0 1 4.39663,4.396635 4.396584,4.396584 0 0 1 -4.39663,4.396627 4.396584,4.396584 0 0 1 -4.39663,-4.396627 4.396584,4.396584 0 0 1 4.39663,-4.396635 z"
       inkscape:export-filename="loci-full-blue.svg"
       inkscape:export-xdpi="96"
       inkscape:export-ydpi="96" /><path
       id="path2-4"
       style="display:inline;opacity:1;fill:none;fill-opacity:1;stroke:#355f7f;stroke-width:3.61625;stroke-opacity:1"
       inkscape:label="mag_glass"
       d="m 224.65437,112.33658 a 17.309015,17.201773 0 0 1 -17.30901,17.20178 17.309015,17.201773 0 0 1 -17.30902,-17.20178 17.309015,17.201773 0 0 1 17.30902,-17.201773 17.309015,17.201773 0 0 1 17.30901,17.201773 z" /></g><g
     inkscape:groupmode="layer"
     id="layer1"
     inkscape:label="Text"
     transform="translate(-31.65076,-51.020942)"><text
       xml:space="preserve"
       style="font-style:normal;font-variant:normal;font-weight:normal;font-stretch:normal;font-size:49.6457px;font-family:Serif;-inkscape-font-specification:'Serif, Normal';font-variant-ligatures:normal;font-variant-caps:normal;font-variant-numeric:normal;font-variant-east-asian:normal;display:inline;fill:#355f7f;fill-opacity:1;stroke:none;stroke-width:60.6382"
       x="288.2132"
       y="80.907036"
       id="text1"
       inkscape:label="Loci Notes text"
       inkscape:export-filename="loci-full-light.svg"
       inkscape:export-xdpi="96"
       inkscape:export-ydpi="96"><tspan
         id="tspan1"
         style="font-style:normal;font-variant:normal;font-weight:bold;font-stretch:normal;font-size:42.3333px;font-family:Serif;-inkscape-font-specification:'Serif, Bold';font-variant-ligatures:normal;font-variant-caps:normal;font-variant-numeric:normal;font-variant-east-asian:normal;text-align:end;text-anchor:end;fill:#355f7f;fill-opacity:1;stroke-width:60.6382"
         x="288.2132"
         y="80.907036"
         sodipodi:role="line"
         dy="15.84">Loci</tspan><tspan
         style="font-style:normal;font-variant:normal;font-weight:bold;font-stretch:normal;font-size:42.3333px;font-family:Serif;-inkscape-font-specification:'Serif, Bold';font-variant-ligatures:normal;font-variant-caps:normal;font-variant-numeric:normal;font-variant-east-asian:normal;text-align:end;text-anchor:end;fill:#355f7f;fill-opacity:1;stroke-width:60.6382"
         x="288.2132"
         y="142.96416"
         sodipodi:role="line"
         id="tspan2">Notes</tspan></text></g></svg>
